{
  "users": [
    {
      "lastname": "Empty",
      "name": "Adam",
      "id": 1
    },
    {
      "lastname": "Sidorova",
      "name": "Aleksandra",
      "id": 2
    },
    {
      "lastname": "Sidorova",
      "name": "Aleksandra",
      "id": 3
    },
    {
      "name": "Alice",
      "lastname": "FetchAPI",
      "id": 4
    },
    {
      "name": "Alice",
      "lastname": "FetchAPI",
      "id": 5
    },
    {
      "lastname": "Sidorova_XHR",
      "name": "Aleksandra_XHR",
      "id": 6
    },
    {
      "name": "Alice_2",
      "lastname": "XHR",
      "id": 7
    },
    {
      "name": "Alice_2",
      "lastname": "XHR",
      "id": 8
    },
    {
      "name": "Alice_2",
      "lastname": "XHR",
      "id": 9
    }
  ]
}